{
  "files": {
    "main.css": "/static/css/main.8388acd8.css",
    "main.js": "/static/js/main.53811285.js",
    "static/js/787.37867fc0.chunk.js": "/static/js/787.37867fc0.chunk.js",
    "static/media/bg1.png": "/static/media/bg1.2b70a0a46c3c10e88e98.png",
    "static/media/gagan.png": "/static/media/gagan.e6fe4c340beb73fa572f.png",
    "static/media/gmlvi.svg": "/static/media/gmlvi.da890bf99c39cf97f6ee7193fe7e0862.svg",
    "index.html": "/index.html",
    "main.8388acd8.css.map": "/static/css/main.8388acd8.css.map",
    "main.53811285.js.map": "/static/js/main.53811285.js.map",
    "787.37867fc0.chunk.js.map": "/static/js/787.37867fc0.chunk.js.map"
  },
  "entrypoints": [
    "static/css/main.8388acd8.css",
    "static/js/main.53811285.js"
  ]
}